Precise metabolic dependencies of cancer through deep learning and validations
…
#> # A tibble: 25 × 3
#>    source target   weight
#>    <chr>  <chr>     <dbl>
#>  1 GPX4   ABCC5   0.0136 
#>  2 GPX4   ACSL3   0.0680 
#>  3 GPX4   AQP10   0.00907
#>  4 GPX4   AQP7    0.0862 
#>  5 GPX4   CRAT    0.00907
#>  6 GPX4   CYP3A5  0.0136 
#>  7 GPX4   CYP4F11 0.0635 
#>  8 GPX4   ELOVL7  0.0317 
#>  9 GPX4   ESD     0.0658 
#> 10 GPX4   GSR     0.542  
#> # ℹ 15 more rows
…
